{

    "problemParams": {
        "epsilon": 0.8,
        "sigma": 5.67051e-8,
        "lambda": 1.0,
        "lambdaAir": 10.0,
        "tcold": 300.0,
        "tinit": 1000,
        "rho": 2500,
        "bd": 0.0,
        "cp": 1200.0,
        "mu": 5.0e6,
        "q": 10.6,
        "beta": 1,
        "velOffset": 0.3
    },
    "numericParams": {
        "nr": 50,
        "nz": 20,
        "nt": 2000,
        "resR": 50,
        "resZ": 50,
        "tstart": 0,
        "tend": 200000,
        "offset":1e-3
    }
}